%YAML 1.1
%TAG !u! tag:unity3d.com,2011:
--- !u!114 &11400000
MonoBehaviour:
  m_ObjectHideFlags: 32
  m_CorrespondingSourceObject: {fileID: 0}
  m_PrefabInstance: {fileID: 0}
  m_PrefabAsset: {fileID: 0}
  m_GameObject: {fileID: 0}
  m_Enabled: 1
  m_EditorHideFlags: 0
  m_Script: {fileID: 11500000, guid: eb4a85738ff03454b9f5b5950891ae6b, type: 3}
  m_Name: ShowGrid
  m_EditorClassIdentifier: 
  DeveloperDescription: 
  resetOnStart: 1
  ResetValue: 1
  Value: 0
